…
    ## # A tibble: 9 x 2
    ##   Attribute     n
    ##   <chr>     <int>
    ## 1 age          61
    ## 2 altruism     11
    ## 3 cost         19
    ## 4 fitness      28
    ## 5 gender       55
    ## 6 health       31
    ## 7 law          17
    ## 8 status       41
    ## 9 sub_ab       30

    ## # A tibble: 27 x 3
    ## # Groups:   Attribute [9]
    ##    Attribute Value                      n
    ##    <chr>     <chr>                  <int>
    ##  1 age       10                         9
    ##  2 age       40                        24
    ##  3 age       70                        19
    ##  4 age       baby                       9
    ##  5 altruism  donated a kidney           6
    ##  6 altruism  not a registered donor     5
    ##  7 cost      rural                      9
    ##  8 cost      urban                     10
    ##  9 fitness   athletic                   7
    ## 10 fitness   obese                     13
    ## # … with 17 more rows

    ## # A tibble: 27 x 3
    ## # Groups:   Attribute [9]
    ##    Attribute Value                      n
    ##    <chr>     <chr>                  <int>
    ##  1 age       10                       276
    ##  2 age       40                       689
    ##  3 age       70                       352
    ##  4 age       baby                     225
    ##  5 altruism  donated a kidney         146
    ##  6 altruism  not a registered donor   155
    ##  7 cost      rural                    262
    ##  8 cost      urban                    222
    ##  9 fitness   athletic                 162
    ## 10 fitness   obese                    307
    ## # … with 17 more rows
…
